{
  "Actor": {
    "types": ["character","npc"],
    "templates": {
      "common":{
        "atributos": {
          "for": {
            "value": 10,
            "bonus": 0
          },
          "des": {
            "value": 10,
            "bonus": 0
          },
          "con": {
            "value": 10,
            "bonus": 0
          },
          "int": {
            "value": 10,
            "bonus": 0
          },
          "sab": {
            "value": 10,
            "bonus": 0
          },
          "car": {
            "value": 10,
            "bonus": 0
          }
        },
        "attributes": {
          "cd": 10,
          "pv": {
            "value": 8,
            "min": -500,
            "max": 8,
            "temp": 0
          },
          "pm": {
            "value": 3,
            "min": 0,
            "max": 3,
            "temp": 0
          },
          "movement": {
            "burrow": 0,
            "climb": 0,
            "fly": 0,
            "swim": 0,
            "walk": 9,
            "unit": "m",
            "hover": false
          },
          "defesa":{
            "value": 0,
            "outros": 0,
            "atributo": "des",
            "pda": 0
          }
        },
        "detalhes": {
          "biography": {
            "value": "",
            "public": ""
          }
        },
        "tracos": {
          "tamanho": "med",
          "resistencias": {
            "dano": {
              "value": 0
            }
          },
          "ic": {
            "value": [],
            "custom": ""
          }
        },
        "dinheiro": {
          "tl": 0,
          "to": 0,
          "tp": 0,
          "tc": 0
        },
        "resources": {}
      },
      "creature": {
        "attributes": {
          "sentidos": {
            "value": [],
            "custom": ""
          },
          "conjuracao": "int",
          "nivel": {
            "value": 1
          }
        },
        "detalhes": {
          "raca": "",
          "tipo": "humanoide",
          "alinhamento": "",
          "divindade": ""
        },
        "pericias": {
          "acro": {
            "value": 0, "atributo": "des", "outros": 0
          },
          "ades": {
            "value": 0,"atributo": "car", "outros": 0
          },
          "atle": {
            "value": 0,"atributo": "for", "outros": 0
          },
          "atua": {
            "value": 0,"atributo": "car", "outros": 0
          },
          "cava": {
            "value": 0,"atributo": "des", "outros": 0
          },
          "conh": {
            "value": 0,"atributo": "int", "outros": 0
          },
          "cura": {
            "value": 0,"atributo": "sab", "outros": 0
          },
          "dipl": {
            "value": 0,"atributo": "car", "outros": 0
          },
          "enga": {
            "value": 0,"atributo": "car", "outros": 0
          },
          "fort": {
            "value": 0,"atributo": "con", "outros": 0
          },
          "furt": {
            "value": 0,"atributo": "des", "outros": 0
          },
          "guer": {
            "value": 0,"atributo": "int", "outros": 0
          },
          "inic": {
            "value": 0,"atributo": "des", "outros": 0
          },
          "inti": {
            "value": 0,"atributo": "car", "outros": 0
          },
          "intu": {
            "value": 0,"atributo": "sab", "outros": 0
          },
          "inve": {
            "value": 0,"atributo": "int", "outros": 0
          },
          "joga": {
            "value": 0,"atributo": "car", "outros": 0
          },
          "ladi": {
            "value": 0,"atributo": "des", "outros": 0
          },
          "luta": {
            "value": 0,"atributo": "for", "outros": 0
          },
          "mist": {
            "value": 0,"atributo": "int", "outros": 0
          },
          "nobr": {
            "value": 0,"atributo": "int", "outros": 0
          },
          "ofi0": {
            "value": 0,"atributo": "int", "outros": 0
          },
          "perc": {
            "value": 0,"atributo": "sab", "outros": 0
          },
          "pilo": {
            "value": 0,"atributo": "des", "outros": 0
          },
          "pont": {
            "value": 0,"atributo": "des", "outros": 0
          },
          "refl": {
            "value": 0,"atributo": "des", "outros": 0
          },
          "reli": {
            "value": 0,"atributo": "sab", "outros": 0
          },
          "sobr": {
            "value": 0,"atributo": "sab", "outros": 0
          },
          "vont": {
            "value": 0,"atributo": "sab", "outros": 0
          },
          "_pc0": {
            "value": 0,"atributo": "for", "outros": 0
          }
        },
        "tracos": {
          "idiomas": {
            "value": ["comum"]
          }
        },
        "modificadores": {
          "atributos": {
            "geral": "",
            "fisicos": "",
            "mentais": "",
            "for": "",
            "des": "",
            "con": "",
            "int": "",
            "sab": "",
            "car": ""
          },
          "dano": {
            "geral": "",
            "cac": "",
            "ad": "",
            "mag": "",
            "alq": ""
          },
          "custoPM":0,
          "pericias": {
            "geral": "",
            "semataque": "", 
            "ataque": "", 
            "resistencia": "", 
            "atr": {
              "for": "",
              "des": "",
              "con": "",
              "int": "",
              "sab": "",
              "car": ""
            }
          }
        }
      }
    },
    "htmlFields": ["detalhes.biography.value", "detalhes.biography.public"],
    "character": {
      "templates": ["common", "creature"],
      "attributes": {
        "carga": {
          "value": null,
          "max": null
        },
        "nivel": {
          "xp": {
            "value": 0,
            "min": 0,
            "proximo": 1000
          }
        }
      },
      "detalhes": {
        "classe": "",
        "origem": ""
      },
      "tracos": {
        "profArmas": {
          "value": ["sim"]
        },
        "profArmaduras": {
          "value": ["lev"]
        }
      }
    },
    "npc": {
      "templates": ["common", "creature"],
      "attributes": {
        "nivel": {
          "xp": {
            "value": 0
          }
        }
      },
      "detalhes": {
        "nd": "",
        "equipamento": "",
        "resistencias": "",
        "tesouro": ""
      }
    }
  },
  "Item": {
    "types": ["arma","equipamento","classe","consumivel","magia","poder","tesouro","equip"],
    "templates": {
      "base": {
        "description": {
          "value": "",
          "chat": "",
          "unidentified": ""
        },
        "source": ""
      },
      "efeitoAtivado": {
        "ativacao": {
          "execucao": "",
          "custo": 0,
          "qtd": 0,
          "condicao": "",
          "special": ""
        },
        "duracao": {
          "value": null,
          "units": "",
          "special": ""
        },
        "target": {
          "value": null,
          "width": null,
          "units": "",
          "type": ""
        },
        "range": {
          "value": null,
          "units": ""
        },
        "consume": {
          "type": "",
          "target": null,
          "amount": null
        },
        "efeito": "",
        "alcance": "",
        "alvo": "",
        "area": ""
      },
      "resistencia": {
        "resistencia" : {
          "pericia": "",
          "atributo": "",
          "bonus": 0
        }
      },
      "objeto":{
        "equipado": false,
        "carregado": true,
        "peso": 0,
        "espacos": 0,
        "qtd": 1,
        "preco": 0,
        "pv": {
          "value": 0,
          "min": 0,
          "max": 0
        },
        "rd": 0
      }
    },
    "equipamento": {
      "templates": ["base", "objeto"],
      "tipo": "leve",
      "armadura": {
        "value": 0,
        "penalidade": 0,
        "maxAtr": 0
      }
    },
    "poder": {
      "templates": ["base", "efeitoAtivado", "resistencia","aprimoramento"],
      "rolls": [],
      "tipo": "",
      "subtipo": ""
    },
    "magia": {
      "templates": ["base", "efeitoAtivado", "resistencia"],
      "rolls": [],
      "tipo": "",
      "circulo": 1,
      "preparada": false,
      "escola": ""
    },
    "tesouro": {
      "templates": ["base","objeto"],
      "container": false
    },
    "arma": {
      "templates": ["base","objeto"],
      "rolls": [],
      "criticoM": 20,
      "criticoX": 2,
      "lancinante": false,
      "alcance": "",
      "tipoUso": "simples",
      "propriedades": {}
    },
    "consumivel": {
      "templates": ["base","objeto", "efeitoAtivado", "resistencia"],
      "rolls": [],
      "tipo": "",
      "uses": {
        "autoDestroy": false
      }
    },
    "classe": {
      "templates": ["base"],
      "niveis": 1,
      "pvPorNivel": "2",
      "pmPorNivel": "3",
      "inicial": false,
      "pericias": {
        "numero": 2,
        "inatas": "",
        "escolhas": [],
        "value": []
      }
    }
  }
}
